^C:\USERS\RENGO\SOURCE\REPOS\CONSOLEAPPLICATION5\DEBUG\CONSOLEAPPLICATION5.OBJ
C:\USERS\RENGO\SOURCE\REPOS\CONSOLEAPPLICATION5\DEBUG\CONSOLEAPPLICATION5.EXE
C:\USERS\RENGO\SOURCE\REPOS\CONSOLEAPPLICATION5\DEBUG\CONSOLEAPPLICATION5.ILK
C:\USERS\RENGO\SOURCE\REPOS\CONSOLEAPPLICATION5\DEBUG\CONSOLEAPPLICATION5.PDB
